<?xml version="1.0" standalone="no"?>
<!DOCTYPE svg PUBLIC "-//W3C//DTD SVG 20010904//EN"
 "http://www.w3.org/TR/2001/REC-SVG-20010904/DTD/svg10.dtd">
<svg version="1.0" xmlns="http://www.w3.org/2000/svg"
 width="2956.000000pt" height="2956.000000pt" viewBox="0 0 2956.000000 2956.000000"
 preserveAspectRatio="xMidYMid meet">
<metadata>
Created by potrace 1.16, written by Peter Selinger 2001-2019
</metadata>
<g transform="translate(0.000000,2956.000000) scale(0.100000,-0.100000)"
fill="#000000" stroke="none">
<path d="M15510 28929 c-19 -5 -163 -20 -320 -34 -306 -27 -478 -53 -587 -87
-59 -18 -89 -21 -226 -19 -131 2 -165 6 -202 22 -40 18 -54 19 -157 10 -109
-9 -115 -8 -168 16 -118 53 -506 52 -828 -2 -140 -24 -146 -26 -300 -104 -86
-44 -191 -93 -232 -109 -99 -39 -211 -92 -288 -136 -34 -19 -142 -61 -240 -92
-589 -187 -1101 -403 -1592 -671 -91 -49 -293 -153 -450 -230 -360 -178 -718
-379 -1020 -573 -58 -37 -160 -95 -227 -129 -589 -295 -1456 -933 -2073 -1526
-74 -72 -225 -211 -335 -310 -226 -203 -524 -492 -689 -670 -61 -66 -145 -149
-186 -184 -224 -191 -438 -433 -647 -731 -33 -47 -110 -148 -172 -225 -244
-303 -361 -523 -361 -678 0 -46 -19 -87 -40 -87 -9 0 -24 -8 -33 -18 -22 -24
-91 -175 -111 -243 -26 -85 -46 -235 -46 -345 0 -87 -5 -118 -34 -213 -19 -62
-41 -120 -51 -131 -9 -10 -29 -54 -44 -98 -46 -132 -184 -362 -383 -638 -87
-121 -173 -246 -187 -272 -14 -27 -27 -94 -45 -242 -8 -63 -30 -167 -49 -230
-52 -170 -62 -270 -42 -404 16 -109 120 -537 191 -786 34 -121 45 -145 100
-225 35 -49 129 -189 210 -310 318 -474 543 -783 592 -813 136 -84 409 -195
632 -256 52 -14 112 -34 133 -45 21 -11 62 -25 90 -32 44 -12 65 -26 137 -96
47 -45 108 -97 135 -114 66 -42 176 -134 365 -309 177 -163 475 -420 730 -630
452 -373 728 -618 905 -806 77 -82 205 -216 285 -299 80 -82 184 -189 230
-237 64 -67 94 -91 130 -103 57 -19 184 -120 276 -218 108 -116 144 -205 164
-406 31 -305 111 -506 299 -749 53 -69 62 -76 181 -136 246 -125 419 -227 512
-303 26 -21 95 -76 155 -122 122 -96 302 -272 481 -472 153 -171 237 -276 367
-459 120 -168 138 -189 224 -261 40 -34 72 -72 88 -104 34 -67 132 -208 188
-270 25 -27 52 -70 62 -95 36 -97 75 -186 102 -230 309 -496 860 -1330 926
-1399 110 -117 348 -529 475 -821 34 -80 104 -228 155 -330 51 -102 113 -234
138 -295 111 -271 285 -618 399 -797 85 -132 156 -180 365 -242 l107 -32 12
-39 c7 -22 31 -101 54 -175 23 -74 93 -290 156 -480 96 -291 135 -430 248
-885 246 -987 376 -1451 510 -1814 43 -118 46 -130 46 -226 0 -91 5 -117 45
-256 25 -85 86 -304 136 -488 49 -183 93 -339 97 -347 4 -7 41 -40 82 -73 83
-67 97 -73 360 -139 85 -22 236 -67 335 -100 341 -114 756 -208 1075 -243 278
-30 787 -37 995 -14 83 9 220 20 305 25 85 5 180 16 210 24 30 8 192 47 360
86 543 126 816 208 1250 375 578 224 801 331 1270 610 85 50 216 127 290 170
260 151 289 171 432 299 450 405 781 734 1064 1057 188 214 439 512 556 659
217 274 784 1375 921 1790 143 431 183 561 217 694 44 175 69 330 76 471 2 55
5 115 6 133 1 25 -7 42 -34 70 -19 20 -57 78 -83 127 -27 50 -71 133 -100 186
-83 156 -156 249 -480 619 -200 227 -203 231 -300 395 -44 75 -121 193 -172
263 -227 314 -361 504 -508 722 -243 360 -358 525 -521 747 -49 66 -118 174
-154 239 -36 65 -116 204 -178 308 -148 248 -147 245 -181 383 l-29 118 46 68
c38 56 46 77 50 125 4 52 0 65 -38 137 -23 44 -93 208 -157 365 -150 371 -202
488 -338 760 -62 124 -149 306 -195 405 -45 99 -129 277 -187 395 -133 274
-323 691 -362 796 -16 44 -59 152 -94 240 -36 87 -95 238 -131 335 -78 210
-173 430 -325 749 -90 187 -129 286 -195 485 -46 138 -125 354 -176 480 -50
127 -113 289 -140 360 -26 72 -97 256 -158 410 -187 475 -243 784 -262 1450
l-8 300 -71 220 c-38 121 -75 239 -81 262 -8 33 -20 49 -54 72 -24 17 -63 54
-87 83 -24 29 -73 87 -108 128 -36 41 -71 82 -78 90 -6 9 -19 65 -28 125 -20
130 -76 359 -145 585 -28 91 -71 237 -96 325 -25 88 -84 294 -130 458 -91 319
-280 900 -412 1263 -44 122 -87 249 -96 282 -17 69 -63 187 -137 359 -28 65
-91 224 -141 353 -49 129 -122 312 -163 405 -87 201 -122 315 -135 441 -11
103 -4 292 12 342 7 24 7 37 -1 45 -15 15 -13 57 4 87 45 79 -17 490 -135 885
-21 72 -50 180 -64 240 -15 61 -54 200 -87 310 -33 110 -72 238 -86 285 -51
168 -114 277 -268 460 -39 47 -89 112 -110 145 -50 78 -538 566 -623 622 -74
49 -274 124 -392 148 -47 9 -92 18 -100 19 -8 2 -31 -1 -50 -5z m1832 -3967
c20 -43 46 -110 57 -150 11 -40 29 -88 41 -106 11 -18 20 -43 20 -54 0 -12 21
-88 46 -169 26 -82 64 -209 86 -283 50 -173 134 -441 203 -645 66 -199 188
-580 210 -660 9 -33 43 -143 75 -245 32 -102 66 -213 76 -248 l17 -62 -26 -38
c-28 -41 -62 -76 -121 -125 -22 -18 -73 -72 -114 -122 -41 -49 -124 -142 -185
-204 -143 -149 -282 -312 -367 -431 -38 -52 -90 -120 -117 -151 -26 -30 -63
-73 -82 -95 -44 -51 -247 -305 -291 -366 -19 -25 -66 -82 -103 -125 -99 -114
-194 -250 -218 -313 -44 -114 -35 -238 27 -346 23 -40 53 -154 128 -484 20
-85 47 -195 62 -245 14 -49 35 -121 46 -160 10 -38 44 -131 73 -205 30 -74 88
-236 131 -360 80 -235 103 -291 136 -326 10 -12 21 -38 25 -58 8 -48 4 -51
-239 -242 -109 -86 -257 -205 -330 -265 -230 -191 -599 -464 -613 -453 -7 5
-50 41 -96 79 -46 39 -102 83 -124 99 -22 16 -71 57 -110 91 -198 173 -419
333 -745 540 -90 58 -259 155 -400 232 -85 47 -202 115 -260 152 -245 157
-347 211 -398 211 -46 0 -119 -30 -154 -62 -18 -17 -94 -72 -168 -123 -74 -51
-201 -141 -281 -201 -291 -217 -509 -373 -784 -560 -77 -52 -214 -146 -305
-209 -91 -63 -256 -176 -368 -251 -112 -76 -207 -145 -212 -155 -5 -9 -33 -29
-62 -44 -67 -35 -103 -68 -128 -121 l-21 -42 66 -63 c37 -35 90 -94 118 -131
29 -38 55 -68 59 -68 29 0 134 -287 188 -515 32 -132 42 -147 112 -166 55 -14
79 -6 138 46 27 24 96 80 153 124 117 91 148 122 206 206 40 57 89 96 271 219
25 16 79 55 120 86 41 31 104 77 140 102 36 24 117 82 180 127 63 46 282 194
485 330 l370 247 104 23 c232 49 305 56 566 55 196 0 268 -4 335 -17 47 -10
137 -27 200 -38 71 -12 134 -30 165 -46 70 -36 316 -192 338 -215 10 -10 24
-18 32 -18 23 0 55 -37 55 -65 0 -27 -92 -97 -325 -245 -158 -100 -286 -183
-510 -331 -93 -62 -199 -128 -235 -147 -61 -32 -237 -132 -270 -152 -8 -6 -53
-29 -100 -53 -81 -41 -192 -113 -585 -378 -203 -137 -418 -273 -692 -438 -112
-67 -256 -159 -322 -205 -66 -47 -161 -109 -213 -139 -171 -101 -535 -275
-768 -368 -41 -17 -100 -41 -130 -54 -30 -13 -170 -67 -310 -119 -258 -97
-275 -104 -480 -213 -212 -113 -569 -227 -995 -317 -353 -75 -528 -91 -677
-62 -61 11 -76 20 -165 92 -136 111 -396 366 -473 465 -80 103 -141 165 -245
248 -44 36 -226 189 -405 341 -179 152 -422 354 -540 450 -277 225 -348 283
-571 469 -101 85 -229 188 -284 228 -183 135 -749 571 -825 636 -178 152 -240
226 -177 213 159 -34 598 -44 807 -18 128 16 350 57 445 82 132 36 593 91 790
94 118 3 143 7 276 44 81 23 198 59 260 81 63 22 168 55 234 74 524 152 1075
347 1400 495 214 98 630 311 775 397 30 18 123 70 205 116 124 68 563 326 760
446 28 17 102 62 165 101 63 38 156 86 205 107 120 51 179 83 311 170 118 77
217 151 329 245 287 241 398 330 525 421 80 57 154 111 165 120 11 10 74 59
140 110 268 207 505 420 869 779 158 157 335 338 393 403 119 135 248 305 272
358 9 20 73 96 143 170 69 74 186 208 259 298 74 91 157 192 184 226 80 98
264 321 338 409 110 131 305 375 403 502 253 331 608 862 654 979 35 88 95
202 177 338 29 48 53 93 53 100 0 7 6 21 14 32 7 11 23 51 35 88 16 48 31 74
52 90 17 12 39 42 50 67 12 25 26 56 33 70 11 23 40 36 86 38 9 1 29 -28 52
-76z m1143 -3732 c12 -41 54 -169 94 -285 77 -224 151 -464 151 -488 0 -8 12
-55 26 -103 83 -279 92 -348 63 -482 -38 -173 -32 -166 -529 -660 -245 -244
-461 -455 -480 -469 -19 -15 -75 -65 -125 -113 -49 -47 -121 -115 -160 -150
-38 -35 -111 -104 -161 -153 -51 -49 -96 -87 -102 -83 -5 3 -12 24 -16 45 -3
22 -17 75 -31 118 -20 67 -24 99 -25 223 -1 80 -2 168 -2 195 -2 83 20 451 37
610 27 263 57 424 106 569 31 92 33 95 269 426 49 69 210 318 210 325 0 3 22
38 50 79 36 53 63 82 97 101 27 16 77 53 112 84 160 141 360 293 380 289 7 -2
23 -37 36 -78z m663 -1632 c-2 -93 0 -168 4 -168 5 0 8 -30 8 -67 0 -88 25
-367 45 -508 9 -60 18 -129 20 -152 13 -123 81 -366 132 -473 51 -108 115
-255 118 -272 6 -27 152 -389 216 -534 33 -73 59 -135 59 -138 0 -15 147 -404
192 -506 69 -159 69 -164 -1 -25 -130 260 -396 553 -591 651 -43 22 -72 28
-144 32 -51 2 -116 -1 -147 -7 -72 -15 -165 -70 -254 -151 -40 -36 -113 -103
-164 -148 -209 -191 -353 -451 -367 -664 -2 -46 -9 -112 -14 -148 -18 -125
-11 -566 15 -963 14 -216 137 -777 219 -1001 18 -50 50 -138 70 -196 20 -58
56 -150 80 -205 36 -84 48 -103 75 -116 27 -12 42 -36 90 -135 69 -141 143
-243 278 -379 67 -69 116 -109 154 -128 37 -18 56 -34 55 -45 0 -9 13 -25 31
-36 18 -12 32 -28 33 -37 0 -9 11 -21 25 -27 14 -6 25 -16 25 -20 0 -5 10 -7
23 -5 12 2 31 -3 42 -12 11 -9 14 -14 8 -10 -7 3 -13 1 -13 -4 0 -6 18 -11 39
-11 22 0 42 -3 44 -7 3 -5 43 -9 89 -11 45 -2 98 -8 117 -14 29 -9 36 -8 46 6
11 15 13 15 19 1 5 -13 10 -14 27 -5 11 6 27 9 35 6 8 -3 22 3 31 14 11 12 30
20 50 20 18 0 33 4 33 8 0 5 18 17 40 27 22 10 40 23 40 29 0 6 18 20 40 30
22 11 40 23 40 27 0 4 7 10 16 13 10 4 13 2 9 -7 -4 -6 2 -2 13 10 11 12 33
24 50 25 17 1 28 6 26 10 -3 5 3 11 13 15 10 4 32 17 49 29 29 23 96 55 122
60 20 4 21 6 24 43 2 22 10 39 25 48 13 9 23 23 23 33 0 10 6 25 13 32 11 12
20 31 52 118 7 19 19 49 26 65 7 17 13 35 15 42 1 6 16 32 33 57 18 25 27 46
21 46 -5 0 -10 8 -10 17 0 9 3 13 7 10 3 -4 12 2 20 13 11 15 11 24 3 37 -9
15 -10 14 -5 -7 4 -17 3 -21 -3 -11 -7 10 -14 6 -28 -18 -10 -17 -22 -31 -26
-31 -4 0 9 26 30 58 20 31 46 76 56 99 10 24 23 40 29 36 6 -4 8 0 4 10 -3 10
-2 17 3 17 5 0 7 7 4 15 -4 8 -2 15 3 15 5 0 9 8 10 18 0 9 4 28 7 42 32 136
31 191 -4 350 -10 47 -21 96 -23 110 -14 76 -123 375 -149 407 -5 7 -7 17 -3
23 4 6 7 56 8 109 0 125 -17 157 -105 202 -53 27 -62 36 -85 87 -14 31 -45
118 -69 192 -25 74 -66 198 -93 275 -55 156 -135 448 -129 466 2 7 19 -30 37
-82 19 -52 47 -120 64 -152 16 -31 31 -70 32 -85 1 -16 32 -98 68 -183 36 -84
94 -224 127 -309 53 -134 68 -162 110 -205 55 -56 70 -100 91 -265 11 -82 20
-110 70 -210 54 -111 133 -259 259 -490 98 -179 181 -342 215 -420 18 -41 65
-151 104 -245 99 -233 186 -435 226 -525 63 -139 97 -248 135 -421 5 -26 50
-129 100 -230 108 -221 111 -241 44 -322 -13 -16 -24 -38 -24 -49 0 -42 -148
-308 -300 -540 -81 -124 -92 -135 -136 -144 -29 -5 -74 38 -74 72 0 18 -23 58
-69 119 -38 50 -79 112 -91 136 -54 106 -162 219 -208 219 -43 0 -54 -14 -60
-69 -9 -98 57 -200 167 -256 90 -45 181 -204 206 -360 36 -224 17 -338 -96
-563 l-82 -162 -106 -84 c-58 -46 -144 -113 -191 -150 -47 -36 -89 -69 -95
-74 -5 -4 -73 -46 -150 -92 -358 -214 -559 -358 -785 -561 -41 -37 -127 -102
-190 -144 -101 -68 -184 -128 -200 -145 -3 -3 -25 -21 -50 -41 -25 -20 -63
-54 -86 -75 -99 -93 -157 -137 -279 -212 -71 -43 -177 -108 -235 -144 -142
-87 -281 -161 -365 -193 -38 -15 -141 -56 -228 -92 -87 -35 -166 -66 -175 -68
-9 -2 -71 -23 -137 -48 -66 -24 -138 -50 -160 -57 -22 -7 -114 -47 -205 -90
-158 -75 -421 -184 -505 -210 -22 -7 -119 -49 -215 -95 -357 -169 -887 -363
-1285 -470 -110 -30 -270 -80 -355 -110 -85 -31 -198 -67 -250 -80 -52 -12
-174 -48 -270 -80 -190 -61 -307 -92 -385 -99 -141 -14 -264 -16 -390 -7 -174
12 -183 13 -272 46 l-72 27 -76 134 c-41 74 -75 138 -75 143 0 5 -11 22 -24
38 -13 15 -64 111 -114 213 -50 102 -127 250 -171 330 -45 79 -80 149 -79 155
1 5 -33 82 -76 170 -43 88 -85 176 -93 195 -54 123 -214 395 -343 580 -159
229 -442 650 -875 1305 -99 149 -210 313 -247 366 -79 111 -168 257 -299 484
-120 209 -198 328 -295 450 -101 126 -314 347 -421 436 -44 38 -98 91 -120
119 -149 197 -225 273 -493 496 -205 171 -301 236 -460 311 -85 40 -180 87
-211 103 -31 17 -63 28 -70 25 -41 -15 -107 69 -123 158 -7 35 -6 37 21 37 36
0 249 36 305 50 73 20 290 91 348 115 33 13 87 25 136 28 59 5 113 18 210 52
71 26 136 48 144 50 8 2 33 10 55 18 22 8 72 20 110 26 86 15 377 83 502 117
268 73 555 185 948 369 55 26 182 73 282 105 152 49 217 76 385 163 230 118
482 261 667 379 69 45 169 108 221 141 52 33 127 81 165 107 39 26 187 114
330 195 143 81 283 163 310 180 28 18 122 78 210 132 205 128 317 202 668 440
85 57 98 60 202 43 33 -6 80 -13 105 -16 63 -7 249 -56 420 -110 210 -67 484
-207 633 -323 99 -77 115 -85 132 -71 21 17 19 37 -10 98 -31 66 -110 150
-195 207 -74 49 -241 132 -280 139 -14 2 -38 9 -53 15 -116 45 -477 117 -636
127 -143 9 -144 11 -59 72 40 28 107 77 148 107 170 126 222 161 360 243 444
263 573 349 741 492 533 456 797 668 1034 828 121 82 341 251 365 281 3 3 23
21 45 40 126 107 271 251 448 446 110 121 237 253 281 294 94 85 159 152 229
236 28 33 81 88 118 123 70 65 214 259 247 334 21 47 37 64 67 70 32 6 37 -25
33 -204z m133 -2318 c128 -39 253 -141 369 -300 41 -56 105 -143 141 -193 55
-75 72 -107 94 -181 15 -50 57 -190 94 -311 60 -193 143 -479 237 -809 15 -55
42 -130 60 -167 27 -57 40 -72 76 -90 73 -37 128 -79 128 -98 0 -10 -18 -45
-39 -78 -35 -55 -50 -67 -162 -132 -68 -40 -170 -104 -227 -143 -118 -80 -181
-110 -348 -168 -225 -78 -418 -154 -475 -190 -91 -55 -210 -154 -259 -215 -69
-85 -111 -110 -183 -110 -55 0 -61 2 -88 35 -37 43 -70 148 -110 345 -17 83
-43 202 -59 265 -46 184 -79 361 -90 482 -6 62 -17 168 -25 236 -22 184 -28
375 -17 483 7 64 7 111 0 143 -8 38 -6 64 11 134 11 48 25 114 31 147 25 131
89 332 135 425 61 121 266 374 353 433 109 76 230 96 353 57z m1267 -2515 c84
-360 115 -536 109 -611 -8 -100 -70 -208 -187 -323 -147 -145 -259 -233 -366
-291 -98 -53 -146 -83 -275 -172 -130 -89 -283 -128 -389 -98 -50 14 -242 159
-330 250 -75 77 -135 168 -207 314 l-38 78 25 17 c13 9 62 44 108 79 47 34 90
62 97 62 7 0 16 -12 20 -27 10 -41 82 -192 111 -235 33 -48 81 -80 179 -120
69 -28 92 -33 165 -33 76 0 93 4 152 33 121 59 205 167 257 329 50 158 57 260
25 396 -9 37 -15 69 -13 71 2 2 46 29 97 61 106 65 254 174 357 263 39 33 73
58 76 54 4 -4 16 -47 27 -97z m-872 -581 c103 -49 97 -237 -10 -288 -123 -58
-271 55 -237 182 11 41 60 95 101 111 38 15 108 13 146 -5z m2216 -2466 c40
-37 53 -59 61 -106 8 -42 99 -201 336 -592 59 -96 127 -211 151 -255 24 -44
81 -134 126 -200 45 -66 118 -178 161 -250 237 -385 297 -482 313 -506 22 -32
177 -285 297 -486 65 -109 113 -174 203 -275 105 -118 126 -148 184 -263 47
-93 70 -151 80 -205 9 -43 32 -109 54 -155 57 -115 72 -175 73 -285 0 -109
-25 -223 -86 -384 -20 -54 -39 -109 -41 -122 -8 -42 -71 -199 -120 -295 -26
-52 -66 -139 -89 -194 -26 -62 -85 -167 -155 -275 -62 -96 -136 -211 -163
-255 -63 -100 -349 -529 -408 -611 -24 -34 -111 -155 -193 -270 -474 -661
-690 -907 -1065 -1209 -123 -99 -254 -203 -290 -231 -94 -72 -626 -381 -842
-489 -41 -21 -112 -59 -159 -86 -80 -45 -337 -150 -550 -224 -52 -18 -192 -68
-310 -110 -502 -179 -794 -273 -915 -295 -66 -11 -138 -29 -161 -40 -29 -13
-77 -20 -160 -25 -65 -3 -168 -15 -229 -26 -399 -74 -578 -91 -1000 -96 -683
-9 -1143 31 -1406 123 -86 30 -151 46 -317 78 -34 6 -83 61 -119 133 -21 43
-69 134 -105 203 -126 237 -364 922 -448 1290 -43 189 -155 629 -192 755 -21
73 -62 189 -180 510 -38 105 -88 240 -110 300 -22 61 -58 148 -78 195 -47 107
-105 293 -97 314 10 26 50 44 113 49 142 13 363 39 419 48 125 22 461 110 514
136 59 28 266 102 516 185 273 91 549 190 640 230 50 22 119 51 155 64 36 14
99 41 140 61 41 19 199 87 350 150 151 63 309 130 350 148 379 168 607 261
732 299 145 44 200 64 323 114 162 66 258 103 261 100 1 -2 -16 -32 -37 -68
-22 -36 -65 -114 -94 -173 -30 -59 -68 -127 -84 -150 -16 -23 -42 -76 -59
-117 -16 -41 -49 -117 -71 -168 -67 -152 -131 -421 -131 -553 0 -31 -9 -114
-20 -185 -18 -121 -19 -135 -4 -234 17 -116 57 -282 85 -346 9 -23 30 -56 46
-75 16 -19 41 -66 57 -106 85 -221 307 -409 587 -494 63 -19 98 -23 234 -23
176 -1 182 0 418 98 155 64 340 179 537 333 63 49 163 121 221 160 58 39 157
108 220 155 63 46 160 116 216 156 57 40 131 96 165 125 35 29 135 102 223
162 88 59 240 169 338 244 307 234 513 378 573 400 31 12 153 51 271 86 118
36 227 72 242 80 16 8 72 23 125 34 102 21 152 43 170 76 6 11 17 24 24 28 16
11 15 27 -3 27 -7 0 -18 6 -22 14 -23 39 -70 41 -226 9 l-77 -16 -68 28 c-88
37 -135 67 -160 102 -11 15 -65 73 -121 127 -55 55 -98 103 -96 107 3 4 -6 10
-19 13 -13 3 -79 64 -147 134 -134 139 -176 205 -287 447 -43 95 -54 131 -77
265 -14 85 -39 223 -55 305 -83 423 -82 421 -90 660 -5 127 -12 293 -16 370
l-7 141 66 118 c39 70 71 143 78 175 7 31 19 66 26 78 8 12 22 61 32 110 34
164 70 238 191 391 60 75 117 153 127 172 32 62 83 140 92 140 5 0 24 -15 43
-32z"/>
<path d="M18785 17811 c-33 -10 -96 -34 -140 -55 -89 -41 -254 -136 -253 -145
1 -3 -39 -47 -88 -97 -95 -98 -96 -98 -135 -159 -60 -93 -159 -372 -159 -447
0 -36 35 -68 73 -68 l32 0 2 63 c3 84 35 206 78 294 91 184 300 395 490 491
61 32 219 62 320 62 40 0 45 2 45 23 0 53 -143 74 -265 38z"/>
<path d="M18172 17566 c-5 -13 -44 -66 -85 -119 -84 -107 -120 -175 -142 -269
-17 -74 -20 -172 -4 -163 5 4 8 12 6 18 -7 19 27 95 109 248 128 238 144 271
144 290 0 26 -15 24 -28 -5z"/>
<path d="M15141 15927 c-56 -28 -35 -47 80 -71 41 -8 104 -28 139 -44 36 -17
110 -44 165 -62 87 -28 198 -69 415 -152 30 -12 76 -31 103 -44 26 -12 47 -18
47 -13 0 14 -98 87 -182 136 -43 25 -78 48 -78 52 0 5 -44 27 -97 50 -54 23
-107 46 -118 51 -38 17 -180 61 -274 86 -103 27 -163 30 -200 11z"/>
<path d="M15065 15558 c-211 -28 -474 -152 -598 -282 -20 -22 -40 -37 -43 -34
-3 4 -22 -12 -42 -34 -19 -22 -52 -48 -71 -58 -62 -31 -186 -177 -281 -330
-19 -30 -80 -126 -137 -212 -98 -148 -234 -389 -275 -488 -11 -25 -23 -54 -28
-65 -30 -65 -80 -234 -96 -320 -15 -79 -19 -150 -19 -335 0 -227 1 -241 33
-400 18 -91 44 -212 58 -269 13 -57 26 -117 29 -135 13 -75 128 -396 190 -531
20 -44 48 -111 62 -150 40 -115 152 -423 193 -530 22 -55 53 -145 70 -201 17
-56 45 -123 63 -149 18 -26 42 -63 53 -82 38 -62 48 -68 136 -73 l82 -5 36
-60 c47 -79 141 -179 214 -227 46 -29 54 -38 36 -38 -31 0 -17 -13 18 -17 15
-2 39 -13 55 -24 15 -11 27 -15 27 -9 0 5 -5 10 -12 10 -6 0 -8 3 -5 7 4 3 19
0 33 -7 23 -13 24 -15 7 -21 -14 -6 -12 -8 10 -8 17 -1 26 3 22 9 -7 11 38 4
60 -9 13 -7 15 -7 160 -11 l120 -3 -90 -7 c-49 -3 -109 -3 -133 1 -23 3 -45 2
-48 -3 -8 -13 23 -21 57 -14 21 4 28 2 23 -6 -4 -6 -3 -8 3 -5 6 4 26 0 45 -7
19 -8 63 -18 98 -22 36 -4 67 -10 70 -14 3 -4 61 -3 130 1 95 7 149 6 225 -5
182 -27 220 -29 246 -15 13 7 27 14 32 15 4 1 8 3 10 4 1 1 20 3 42 5 22 2 51
6 65 9 14 4 45 9 70 13 25 3 50 9 55 13 6 4 25 8 43 8 20 0 40 9 50 20 9 10
32 22 50 25 18 4 56 17 85 30 77 36 96 40 165 41 34 1 66 6 70 12 10 16 45 26
51 15 8 -13 81 21 81 37 0 9 6 12 15 8 8 -3 15 -1 15 4 0 6 6 10 13 10 7 0 29
8 50 19 20 10 34 14 30 7 -4 -6 8 1 26 17 18 15 37 25 42 21 5 -3 9 0 9 7 0 7
3 10 6 6 3 -3 24 5 46 19 22 14 37 20 33 12 -3 -7 6 1 22 19 17 19 41 33 61
36 18 3 45 13 59 22 17 12 23 13 17 4 -8 -14 14 0 43 27 6 6 38 16 70 23 44 8
69 20 97 46 21 19 43 35 48 35 5 0 30 22 57 50 26 27 51 47 55 43 3 -3 6 -1 6
6 0 6 8 15 18 19 41 18 82 48 88 65 3 9 11 17 18 17 7 0 37 23 67 51 30 28 47
48 39 43 -14 -7 14 33 33 47 5 3 8 9 8 13 -3 18 1 25 24 52 13 15 22 30 20 32
-6 6 35 105 51 123 8 8 14 27 14 42 0 14 5 29 10 32 6 3 10 19 10 35 0 37 54
172 65 162 4 -4 5 3 2 16 -3 12 -1 20 3 17 10 -6 16 14 25 83 4 28 11 52 17
52 10 0 6 108 -4 126 -4 5 -9 38 -12 74 -4 36 -9 77 -12 92 -4 20 -1 28 13 32
10 3 7 4 -8 2 l-26 -3 30 76 c16 42 33 81 38 86 23 29 20 92 -11 205 -36 132
-144 411 -200 517 -38 71 -38 71 -18 90 11 10 29 35 40 57 32 63 19 97 -71
191 -43 44 -115 123 -160 175 -45 52 -95 105 -111 118 -16 12 -34 39 -41 60
-20 61 -141 309 -213 437 -181 319 -430 633 -634 798 -176 142 -453 302 -568
328 -48 11 -54 14 -34 19 17 4 -40 19 -165 44 -104 20 -219 44 -255 52 -36 8
-90 17 -120 20 -94 9 -382 11 -445 2z m740 -197 c135 -37 354 -121 469 -178
98 -49 119 -65 215 -161 151 -151 260 -286 468 -580 131 -184 205 -300 261
-407 96 -183 183 -317 293 -453 46 -57 94 -118 107 -134 46 -63 24 -102 -91
-160 -106 -53 -184 -114 -266 -210 -132 -153 -621 -666 -762 -799 -270 -255
-324 -298 -544 -429 -228 -135 -300 -170 -396 -195 -151 -39 -346 -124 -509
-223 -47 -29 -89 -52 -93 -52 -4 0 -58 -29 -120 -65 -62 -35 -130 -67 -152
-71 -21 -3 -73 -15 -115 -25 -117 -30 -179 -34 -238 -15 -48 16 -52 21 -62 59
-58 222 -117 392 -223 637 -126 293 -202 526 -222 680 -9 69 -31 220 -51 337
-38 236 -39 211 12 498 34 191 118 571 149 679 53 181 262 543 495 856 64 85
134 181 155 212 43 62 70 79 200 127 187 68 429 101 730 97 181 -2 221 -6 290
-25z m1805 -2519 c110 -55 107 -228 -5 -282 -53 -26 -90 -25 -145 3 -88 44
-113 142 -57 225 45 68 134 91 207 54z m338 -392 c-180 -321 -323 -513 -549
-737 -277 -273 -534 -458 -857 -614 -222 -108 -626 -260 -873 -329 -90 -25
-94 -24 -46 1 47 25 42 37 -5 15 -108 -50 -358 -90 -563 -90 -200 -1 -238 10
-326 93 -75 72 -99 107 -99 148 0 65 30 85 325 214 119 52 335 186 440 273 81
68 107 83 155 91 134 20 378 104 534 182 275 138 529 352 760 641 32 39 60 72
62 72 2 0 17 -22 34 -48 21 -34 54 -64 115 -106 112 -76 150 -90 257 -90 l87
0 147 73 c129 63 156 81 214 139 59 60 114 151 145 237 5 17 12 9 40 -45 l33
-65 -30 -55z"/>
<path d="M19701 12510 c-13 -6 -43 -13 -67 -15 -87 -11 -183 -57 -257 -124
-53 -48 -80 -92 -108 -179 -29 -90 -21 -125 28 -130 30 -3 37 3 84 68 43 58
73 85 177 157 l126 86 91 -15 c153 -25 228 -73 326 -207 40 -53 180 -310 184
-336 1 -11 8 -40 14 -65 28 -114 22 -350 -10 -411 -4 -9 -11 -31 -14 -49 -3
-17 -15 -50 -26 -71 -11 -22 -18 -43 -15 -48 6 -9 -50 -64 -117 -113 -62 -47
-210 -111 -328 -143 -81 -21 -120 -25 -289 -29 -161 -3 -206 -7 -257 -24 -151
-48 -236 -135 -263 -268 -12 -57 1 -134 22 -134 7 0 28 15 47 33 18 17 31 27
27 20 -3 -6 -3 -14 2 -17 4 -2 20 18 36 45 61 109 198 181 366 194 316 23 493
77 712 218 103 67 140 108 189 211 61 128 73 189 72 356 0 128 -4 159 -31 263
-53 200 -174 408 -339 578 -120 124 -170 152 -278 156 -44 2 -91 -2 -104 -7z"/>
<path d="M22610 7096 c-163 -36 -351 -121 -512 -231 -62 -43 -151 -104 -198
-135 -98 -65 -108 -75 -116 -118 -6 -28 -4 -32 14 -32 12 0 47 17 79 38 61 39
99 56 328 146 288 113 472 201 528 254 35 33 36 69 1 82 -31 12 -53 11 -124
-4z"/>
<path d="M9325 8986 c-99 -16 -227 -49 -294 -76 -367 -144 -613 -415 -708
-778 -19 -74 -26 -132 -30 -244 -21 -573 223 -958 797 -1256 63 -33 216 -104
340 -157 521 -224 655 -306 727 -442 109 -206 36 -439 -173 -550 -101 -53
-186 -74 -325 -80 -241 -11 -419 38 -594 162 -80 57 -200 184 -265 281 -29 43
-54 81 -56 83 -2 2 -110 -58 -241 -134 -395 -229 -473 -276 -473 -286 0 -18
77 -143 138 -225 268 -361 641 -573 1147 -650 152 -23 471 -23 620 0 364 57
625 176 830 381 222 221 325 485 325 835 -1 362 -96 619 -314 848 -202 212
-428 346 -976 582 -451 194 -564 274 -620 441 -28 83 -25 209 8 282 67 150
202 227 399 227 220 0 376 -89 508 -291 26 -41 49 -76 51 -78 5 -5 684 433
684 441 0 23 -156 234 -230 311 -179 188 -384 301 -648 358 -125 27 -501 36
-627 15z"/>
<path d="M6670 7458 c0 -897 -4 -1537 -10 -1604 -28 -318 -158 -447 -450 -448
-147 0 -238 30 -336 111 -53 43 -148 166 -199 258 -20 36 -41 67 -46 71 -8 4
-598 -344 -691 -408 l-28 -19 29 -58 c50 -97 148 -236 228 -321 196 -209 463
-348 769 -400 149 -26 419 -28 569 -6 622 95 972 474 1035 1121 6 59 10 730
10 1648 l0 1547 -440 0 -440 0 0 -1492z"/>
</g>
</svg>
